Fisheriescape vignette • fisheriescape
…
Pivot 1

Function fs_pivot1 summarizes data by variables trip.id
and fleet. The resulting table contains the summed gear, maximum hours
(if applicable), and mean days (if applicable).

pivot1<-fs_pivot1(df2,
      keep.cols = c('cfv','year','sw'),
       gear.col='gear.amount',
       hour.col='hours.fished')
pivot1
#> # A tibble: 32,302 × 7
#> # Groups:   trip.id, fleet [32,302]
#>    trip.id                         fleet  cfv[,1]  year sw    sum.gear max.hours
#>    <chr>                           <chr>  <chr>   <dbl> <chr>    <dbl>     <dbl>
#>  1 k6!ffg;2016-05-07;2016-05-07    GQ_CF… k6!ffg   2016 18          NA        24
#>  2 k6!ffg;2016-05-15;2016-05-15    GQ_CF… k6!ffg   2016 19          NA        24
#>  3 k6!ffg;2016-05-23;2016-05-23    GQ_CF… k6!ffg   2016 21          NA        24
#>  4 k6!ffg;2016-05-28;2016-05-28    GQ_CF… k6!ffg   2016 21          NA        24
#>  5 k6!8JJgk6;2016-05-14;2016-05-14 GQ_CF… k6!8JJ…  2016 19          NA        24
#>  6 k6!8JJgk6;2016-05-27;2016-05-27 GQ_CF… k6!8JJ…  2016 21          NA        24
#>  7 k6!8JJgk6;2016-06-05;2016-06-05 GQ_CF… k6!8JJ…  2016 22          NA        24
#>  8 k6gg7!2$;2014-05-31;2014-05-30  GQ_CF… k6gg7!…  2014 22          45        24
#>  9 k6ggJJ!7;2017-05-19;2017-05-19  GQ_CF… k6ggJJ…  2017 20          25        24
#> 10 k6ggJJ!7;2017-05-25;2017-05-25  GQ_CF… k6ggJJ…  2017 21          30        24
#> # ℹ 32,292 more rows
…
